Week 5 Written Homework
…
Exercise 4.17

In general, what I observe is that zip codes with a higher median score usually have a larger number of inspections than zip codes with lower median scores. However, this is not a very accurate generalization as I can observe this pattern in a very general sense. Nearer to the bottom of the list (lower median score), more zip codes have around 500 or so inspections, whereas at the top of the list, there are usually thousands of inspections, but this pattern is not consistent throughout the entire data set. Generally speaking, however, I can observe that a higher median score generally means that there were more inspections in general.

Violations %>%
  filter(!is.na(score)) %>%
  group_by(zipcode) %>%
  summarize(median_score = median(score), num_inspections = sum(n())) %>%
  filter(num_inspections >= 50) %>%
  select(zipcode, median_score, num_inspections) %>%
  arrange(desc(median_score))

## `summarise()` ungrouping output (override with `.groups` argument)

## # A tibble: 188 x 3
##    zipcode median_score num_inspections
##      <int>        <dbl>           <int>
##  1   11697           21              69
##  2   10310           20             898
##  3   11220           20            6476
##  4   11428           20             887
##  5   10013           19            9567
##  6   10025           19            4723
##  7   10026           19            1468
##  8   10280           19             170
##  9   10304           19             895
## 10   11204           19            2512
## #  with 178 more rows
…
