Quiz 2
…
Chris Moroney

2020-11-02

library(tidyverse)
library(openintro)
revenue <-read_csv("https://bit.ly/385faPm")

Question 1 a

revenue %>%
  pivot_longer(c(Qtr_1, Qtr_2, Qtr_3, Qtr_4), names_to="Quarter", values_to="Revenue")

## # A tibble: 48 x 4
##    Group  Year Quarter Revenue
##    <chr> <dbl> <chr>     <dbl>
##  1 A      2015 Qtr_1        15
##  2 A      2015 Qtr_2        16
##  3 A      2015 Qtr_3        19
##  4 A      2015 Qtr_4        17
##  5 A      2016 Qtr_1        12
##  6 A      2016 Qtr_2        13
##  7 A      2016 Qtr_3        27
##  8 A      2016 Qtr_4        23
##  9 A      2017 Qtr_1        22
## 10 A      2017 Qtr_2        22
## #  with 38 more rows
…
Question 1 c

# Used this to reproduce required dataframe
revenue2 <- revenue %>%
  rename('1'=Qtr_1, '2'=Qtr_2, '3'=Qtr_3, '4'=Qtr_4) %>%
  pivot_longer('1':'4', names_to="Column", values_to="Revenue") %>%
  unite(Year_Quarter, Year, Column) %>%
  arrange(Year_Quarter)
revenue2

## # A tibble: 48 x 3
##    Group Year_Quarter Revenue
##    <chr> <chr>          <dbl>
##  1 A     2015_1            15
##  2 B     2015_1            12
##  3 C     2015_1            11
##  4 A     2015_2            16
##  5 B     2015_2            13
##  6 C     2015_2            12
##  7 A     2015_3            19
##  8 B     2015_3            25
##  9 C     2015_3            22
## 10 A     2015_4            17
## #  with 38 more rows
…
