Lab 1: Intro to R
…
Exercise 7

In the present data set, we see that between 1940 and 2002, the year of 1961 contains the most births in the U.S.

present <- present %>% 
  mutate(total = boys + girls)
present %>%
  arrange(desc(total))

## # A tibble: 63 x 5
##     year    boys   girls   total boy_prop
##    <dbl>   <dbl>   <dbl>   <dbl>    <dbl>
##  1  1961 2186274 2082052 4268326    0.512
##  2  1960 2179708 2078142 4257850    0.512
##  3  1957 2179960 2074824 4254784    0.512
##  4  1959 2173638 2071158 4244796    0.512
##  5  1958 2152546 2051266 4203812    0.512
##  6  1962 2132466 2034896 4167362    0.512
##  7  1956 2133588 2029502 4163090    0.513
##  8  1990 2129495 2028717 4158212    0.512
##  9  1991 2101518 2009389 4110907    0.511
## 10  1963 2101632 1996388 4098020    0.513
## #  with 53 more rows
…
